Jackknife-after-Bootstrap for Networks • JaB
…
karate.result <- jab_network(
  network = karate,
  central.func.name = "degree",
  central.package.name = "igraph",
  central.func.args = list(normalized = TRUE),
  bootstrap.func.name = "bootstrap_snowboot" ,
  bootstrap.package.name = "JaB" ,
  bootstrap.func.args = list( num.seed = 1, num.wave = 2 ),
  B = 1000,
  quant = 0.90,
  nodes = NULL,
  return.boot.samples = FALSE)

karate.result
#> # A tibble: 34 × 8
#>    Node_Number Node_Name Orig_Stat Upper_Quantile Influential  Rank
#>          <int> <chr>         <dbl>          <dbl> <lgl>       <int>
#>  1           1 Mr Hi        0.485           0.263 TRUE            1
#>  2          34 John A       0.515           0.375 TRUE            2
#>  3          33 Actor 33     0.364           0.375 FALSE           3
#>  4          26 Actor 26     0.0909          0.333 FALSE           4
#>  5          24 Actor 24     0.152           0.4   FALSE           5
#>  6           6 Actor 6      0.121           0.375 FALSE           6
#>  7           7 Actor 7      0.121           0.375 FALSE           6
#>  8          28 Actor 28     0.121           0.375 FALSE           6
#>  9          17 Actor 17     0.0606          0.333 FALSE           9
#> 10          30 Actor 30     0.121           0.4   FALSE          10
#> # ℹ 24 more rows
#> # ℹ 2 more variables: Can_Jackknife <lgl>, Num_Boot_Samps <int>
…
