Jackknife-After in JaB Algorithm for Networks — get_jackknife_after • JaB
…
#first get bootstrap samples
boot.result <- bootstrap_snowboot(karate, B = 100, num.seed = 1, num.wave = 2)
#> This graph was created by an old(er) igraph version.
#>   Call upgrade_graph() on it to use with the current igraph version
#>   For now we convert it on the fly...

#then do jackknife-after
get_jackknife_after(network = karate,
  boot.result = boot.result,
  quant = 0.9,
  func.name = "degree",
  package.name = "igraph",
  func.args = list(normalized = TRUE),
  nodes = NULL)
#> # A tibble: 34 × 8
#>    Node_Number Node_Name Orig_Stat Upper_Quantile Influential  Rank
#>          <int> <chr>         <dbl>          <dbl> <lgl>       <int>
#>  1           1 Mr Hi        0.485           0.235 TRUE            1
#>  2          34 John A       0.515           0.286 TRUE            2
#>  3          33 Actor 33     0.364           0.235 TRUE            3
#>  4           3 Actor 3      0.303           0.4   FALSE           4
#>  5          28 Actor 28     0.121           0.235 FALSE           5
#>  6          29 Actor 29     0.0909          0.235 FALSE           6
#>  7          24 Actor 24     0.152           0.36  FALSE           7
#>  8          25 Actor 25     0.0909          0.3   FALSE           8
#>  9          26 Actor 26     0.0909          0.3   FALSE           8
#> 10           6 Actor 6      0.121           0.333 FALSE          10
#> # ℹ 24 more rows
#> # ℹ 2 more variables: Can_Jackknife <lgl>, Num_Boot_Samps <int>
…
