JaB Algorithm for Network Data — jab_network • JaB
…
  network = karate,
  central.func.name = "degree",
  central.package.name = "igraph",
  central.func.args = list(normalized = TRUE),
  bootstrap.func.name = "bootstrap_snowboot" ,
  bootstrap.package.name = "JaB" ,
  bootstrap.func.args = list( num.seed = 1, num.wave = 2 ),
  B = 1000,
  quant = 0.90,
  nodes = NULL,
  return.boot.samples = FALSE)
#> This graph was created by an old(er) igraph version.
#>   Call upgrade_graph() on it to use with the current igraph version
#>   For now we convert it on the fly...
#> # A tibble: 34 × 12
#>    Node_Number Node_Name Orig_Stat Boot_mean Boot_sd Boot_skew   pval
#>          <int> <chr>         <dbl>     <dbl>   <dbl>     <dbl>  <dbl>
#>  1           1 Mr Hi        0.485     0.532   0.353      -2.89 0.0969
#>  2          34 John A       0.515     0.626   0.302     -14.2  0.0737
#>  3          33 Actor 33     0.364     0.337   0.244       3.76 0.0983
#>  4          28 Actor 28     0.121     0.102   0.0866     60.0  0.262 
#>  5          29 Actor 29     0.0909    0.0745  0.0295     15.4  0.366 
#>  6          26 Actor 26     0.0909    0.127   0.106      12.7  0.379 
#>  7          24 Actor 24     0.152     0.150   0.119      39.1  0.263 
#>  8           6 Actor 6      0.121     0.128   0.167      48.0  0.256 
#>  9           7 Actor 7      0.121     0.127   0.166      48.8  0.256 
#> 10          30 Actor 30     0.121     0.110   0.0611     10.3  0.312 
#> # ℹ 24 more rows
#> # ℹ 5 more variables: Upper_Quantile <dbl>, Influential <lgl>, Rank <int>,
#> #   Can_Jackknife <lgl>, Num_Boot_Samps <int>
…
